type,id,section,feature,lower,upper,insight,suggestion
Headline,1,word_balance,emotional_count,0,0,"Your content contain zero emotional words, Exploratory analysis on thousands of rows of data has proven that average content engagements are low when no emotional words are used in the content.",Add atleast one emotional word in your content to make more impactful. Click here to access the complete list of Prophesee's inhouse emotional words dictionaries that can be directly used in your content.
Headline,1,word_balance,emotional_count,0,0,"Woo !! No emotional words found in the content, Analysis has shown that the use of right amount of emotional words in the text drives higher content views as they stirs the reader's interests towards the content","Try to add few words in the content which have emotional sense. Click here to get the complete list of Prophesee's inhouse Emotional Words, which can be directly used in the content."
Headline,1,word_balance,emotional_count,0,0,"Your content is not balanced properly in terms of word usage, A balanced use of emotional and power words in the content generally leads to higher engagements and content views. ","Try to add few emotional words in the text, in order to add impactfulness of the text. Click here to get the complete list of Prophesee's inhouse Emotional Words, which can be directly used in the content."
Headline,1,word_balance,emotional_count,0,0,"Your content contains no emotional words, Words which have emotional sense are proven to show higher clicks and opening rates.","Try to add one or two emotional words in your exisiting content. Click here to get the complete list of Prophesee's inhouse Emotional Words, which can be directly used in the content."
Headline,4,word_balance,power_count,0,0,"Your content contains no power words, Exploratory Analysis has proven that content with zero power words in the text tends to garner low audience reach, clickability and shares. ",Add atleast one power word in the text to make your content more impactful and increase audience reach. Click Here to get the complete list of Prophesee's inhouse prepared power words dictionaries that can be directly used in the content.
Headline,4,word_balance,power_count,0,0,"Woo !! No power words in the content, Analysis has shown that lower engagements are observed when there are no power words in the content.",Add atleast one power word in the content to make it more impactful. Click here to get the complete list of Prophesee's inhouse prepared power words dictionaries.
Headline,4,word_balance,power_count,0,0,"Your content is missing power words, according to data analysis, a balanced word usage in the content is expected to drive higher clicks and shares from the readers. ","Try to add atleast one power word in the content to make it more impactful, click here to get Prophesee's complete list of power words. "
Headline,4,word_balance,power_count,0,0,"Your content is not balanced properly in terms of word usage, A balanced use of emotional and power words in the content generally leads to higher engagements and content views. ","Try to add few words in the content which are powerful. Click here to get the complete list of Prophesee's inhouse Power Words, which can be directly used in the content."
Headline,7,word_balance,common_count,0,0,Headline posts without regular words makes them non readable and grammar structure wise incorrect and inconsistent. This makes them too weak for Seo and too complex for reading and understanding.,Fix grammar structure of your content by adding atleast few common words in the text. 
Headline,8,word_balance,common_count,0,0,"No Regular words in the content, Good content is those which is proper and structure wise correct, Regular words are the most important component of content. This makes the content difficult to read and understand.","Add atleast three common words in the text, to make it proper, complete and readable."
Headline,7,word_balance,common_count,0,0,"Woo !! No regular words in the content, A proper content means a proper grammar structure in the text. Use of regular words ensures that the text is readable and complete. ","Add englisht common words such as a, an, of, is etc in the text to make it grammar wise complete and readable. "
Headline,8,word_balance,common_count,7,1000,Using too much common words in the headline makes it too generic and less interesting to read.,Try decreasing the number of common words in your headline. Our analyser tool suggest the ideal prportion is 18 - 25 % of all the words.
Headline,12,text_stats,character_len,0,20,Too few characters in the text. Generally are not appreciated by the readers and audience,Your headline is way too light on words. Try increasing the length of your headline to improve it's seo value.
Headline,12,text_stats,character_len,0,20,Posts and headlines with too few characters tends to perform poorer than headlines with decent number of characters,"Try to increase the length of your headline, add more words or use different words with similar meanings to improve it's seo value."
Headline,12,text_stats,character_len,20,99,Great ! Your text contains optimal number of characters for a good SEO and readability,None
Headline,14,text_stats,character_len,130,1000,"Headlines with such large number of characters sometimes becomes boring to readers, hence needs to be tuned to a proper length","Your headline post is bit lengthy, try to decrease the number of words / characters to make it readable, and improving SEO."
Headline,14,text_stats,character_len,130,1000,Too much characters used in the posts. This is one of the factors responsible for low engagement rates,Try to decrease the number of characters used in the sentences for a neat and short headline.
Headline,14,text_stats,character_len,130,1000,"A proper post is composed of an ideal number of characters, an ideal range is less than 130.","Decrease the number of characters used in the post, this will make your headline short, readable and will generate more interest."
Headline,15,text_stats,words_len,0,4,Headline posts with low number of words do not perform better in SEO and clickability.,Your headline is way too light on words. Try increasing the length of your headline to improve it‘s seo value.
Headline,15,text_stats,words_len,0,4,"Too few words used in the headline text, these generally convey less audience interests","Try to increase the length of your headline, add more words or use different words with similar meanings to improve it's seo value."
Headline,15,text_stats,words_len,0,4,Very few words used. Data analysis shows that readership interests and clickability is higher when number of words used are in the ideal range,Increase the number of words in your headline to make it look comphrensive and complete.
Headline,16,text_stats,words_len,11,24,Great ! Your headline text contains an ideal number of words.,None
Headline,17,text_stats,words_len,25,1000,Headline posts with larger number of words makes the text too wordy.,Your headline post contains too many words. Try reducing the length of your headline to improve it's seo value.
Headline,17,text_stats,words_len,25,1000,Too wordy headlines are generally not appreaciated by the audience,Try to lower down the number of words used in the text to improve the impact
Headline,17,text_stats,words_len,25,1000,Headlines with too many words makes the text less interesting to read.,In order to increase clickability and readership try to decrease the number of words used.
Headline,17,text_stats,words_len,25,1000,Ideal and most engaging headlines are the ones having ideal number of words,"Decrease the number of words used in the post, this will make your headline short, readable and will generate more interest."
Headline,18,readability,flesch_reading_ease,0,59,Your headline is too difficult to read as suggested by our readability analysis calculator,Flesch Reading Ease score with value less than 60 is considered difficult to read. Try to use less difficult words to improve readability.
Headline,18,readability,flesch_reading_ease,0,59,The readability of your headline is poor as suggested by Prophesee Readability Analyzer,Try to alter some lengthy / difficult words to reduce the readability of your text
Headline,18,readability,flesch_reading_ease,0,59,The readability of your headling is not optimal. Flesch parameter greater than 60 is not considered good.,Try to use less difficult words in the text in order to improve the readability.
Headline,18,readability,flesch_reading_ease,0,59,Your input text seems difficult to read as computed by Prophesee Readability Score analyzer,Improve text readability of your text by changing some difficult words used in the text.
Headline,19,readability,flesch_reading_ease,60,1000,"Great ! Your headline readability score is good, hence its easier to read.",None
Headline,22,readability,avg_syllables_per_word,0,2,Great ! Your headline text average syllable count is optimal.,None
Headline,23,readability,avg_syllables_per_word,4,1000,Syllables are the words which are difficult to read an pronounce. They consists of multiple sounds in the word,Try to add words in the text which are slightly lesser syllable heavy.
Headline,23,readability,avg_syllables_per_word,5,1000,More syllables means more sound in text pronouncation. Your average syllable words in the text is way too higher.,Try to change the existing words with alternative words which are lesser syllable heavy
Headline,23,readability,avg_syllables_per_word,5,1000,Higher Number of average word syllables impact the text readability.,"Your headline contains too many syllables on an average, try to decrease this number by replacing few words."
Headline,23,pos_tags,noun,0,0,"An ideal headline post is comprised of a banalced proportion of part of speech usage. Your noun percentage is zero, Try to balance the part of speech usage in the text, this will help in imroving the SEO, make your headline post more readable, and correct structure wise.",None
Headline,23,pos_tags,verb,0,0,"An ideal headline post is comprised of a banalced proportion of part of speech usage. Your verb percentage is zero, Try to balance the part of speech usage in the text, this will help in imroving the SEO, make your headline post more readable, and correct structure wise.",None
Headline,23,pos_tags,adjective,0,0,"An ideal headline post is comprised of a banalced proportion of part of speech usage. Your adjective percentage is zero, Try to balance the part of speech usage in the text, this will help in imroving the SEO, make your headline post more readable, and correct structure wise.",None
Headline,28,sentiment,sentiment,0.51,1,"Your headline shows an overall positive sentiment. Texts that convey strong positive or negative emotions tend to perform better, as compared to neutral content.","Click here to access our free sentiment analysis tool, to adjust sentiment polarity and subjectivity in the text"
Headline,29,sentiment,sentiment,-1,-0.49,"Your headline shows an overall negative sentiment. Texts that convey strong positive or negative emotions tend to perform better, as compared to neutral content.","Click here to access our free sentiment analysis tool, to adjust sentiment polarity and subjectivity in the text"
Headline,28,sentiment,sentiment,-0.5,0.5,Your headline shows an overall neutral sentiment. Texts that convey strong positive or negative emotions tend to perform the best.,"Click here to access our free sentiment analysis tool, to adjust sentiment polarity and subjectivity in the text"
Headline,30,sarcasm,sarcasm,-100,-70,None,"Great !! Your posts are conveying a decent level of sarcasm, posts with a sarcastic nature have shown an increase in virality of the content"
Headline,30,sarcasm,sarcasm,70,100,None,"Great !! Your posts are conveying a decent level of sarcasm, posts with a sarcastic nature have shown an increase in virality of the content"
Headline,31,sarcasm,sarcasm,-69,-40,None,"Virality of a post generally depends on controversies, trends, and sarcasm. Try considering a sarcastic sense in your posts, in case you want to make it viral."
Headline,31,sarcasm,sarcasm,41,70,None,"Virality of a post generally depends on controversies, trends, and sarcasm. Try considering a sarcastic sense in your posts, in case you want to make it viral."
Headline,31,sarcasm,sarcasm,-39,40,None,"Virality of a post generally depends on controversies, trends, and sarcasm. Try considering a sarcastic sense in your posts, in case you want to make it viral."
